…
## Tidying the model object

[broom::tidy()] is a function that gives a summary of the object as a tibble. 

**tl;dr** `tidy()` on a `glmnet` model produced by parsnip gives the coefficients for the value given by `penalty`. 

When parsnip makes a model, it gives it an extra class. Use the `tidy()` method on the object, it produces coefficients for the penalty that was originally requested: 


``` r
tidy(fit)
```

```
## # A tibble: 11 x 3
##   term        estimate penalty
##   <chr>          <dbl>   <dbl>
## 1 (Intercept)  35.3          1
## 2 cyl          -0.872        1
## 3 disp          0            1
## 4 hp           -0.0101       1
## 5 drat          0            1
## 6 wt           -2.59         1
## # i 5 more rows
```

Note that there is a `tidy()` method for `glmnet` objects in the `broom` package. If this is used directly on the underlying `glmnet` object, it returns _all of coefficients on the path_:


``` r
# Use the basic tidy() method for glmnet
all_tidy_coefs <- broom:::tidy.glmnet(fit$fit)
all_tidy_coefs
```

```
## # A tibble: 640 x 5
##   term         step estimate lambda dev.ratio
##   <chr>       <dbl>    <dbl>  <dbl>     <dbl>
## 1 (Intercept)     1     20.1   5.15     0    
## 2 (Intercept)     2     21.6   4.69     0.129
## 3 (Intercept)     3     23.2   4.27     0.248
## 4 (Intercept)     4     24.7   3.89     0.347
## 5 (Intercept)     5     26.0   3.55     0.429
## 6 (Intercept)     6     27.2   3.23     0.497
## # i 634 more rows
```
…
