Evaluating Submodels with the Same Model Object • parsnip
…
For multi_predict(), the same semantics of predict() are used but, for this model, there is an extra argument called trees. Candidate submodel values can be passed in with trees:

fold_1_pred <- 
  multi_predict(
    fold_1_model, 
    new_data = pred_data %>% dplyr::select(-Attrition),
    trees = 1:100,
    type = "prob"
  )
fold_1_pred

## # A tibble: 111 x 1
##    .pred                 
##    <list>                
##  1 <tibble[,3] [100 × 3]>
##  2 <tibble[,3] [100 × 3]>
##  3 <tibble[,3] [100 × 3]>
##  4 <tibble[,3] [100 × 3]>
##  5 <tibble[,3] [100 × 3]>
##  6 <tibble[,3] [100 × 3]>
##  7 <tibble[,3] [100 × 3]>
##  8 <tibble[,3] [100 × 3]>
##  9 <tibble[,3] [100 × 3]>
## 10 <tibble[,3] [100 × 3]>
## # … with 101 more rows

The results is a tibble that has as many rows as the data being predicted (n = 111). The .pred column contains a list of tibbles and each has the predictions across the different number of trees:

fold_1_pred$.pred[[1]]

## # A tibble: 100 x 3
##    trees .pred_No .pred_Yes
##    <int>    <dbl>     <dbl>
##  1     1    0.691     0.309
##  2     2    1         0    
##  3     3    1         0    
##  4     4    1         0    
##  5     5    1         0    
##  6     6    0.862     0.138
##  7     7    0.882     0.118
##  8     8    0.770     0.230
##  9     9    0.689     0.311
## 10    10    0.724     0.276
## # … with 90 more rows

To get this into a format that is more usable, we can use tidyr::unnest() but we first add row numbers so that we can track the predictions by test sample as well as the actual classes:

fold_1_df <- 
  fold_1_pred %>% 
  bind_cols(pred_data %>% dplyr::select(Attrition)) %>% 
  add_rowindex() %>% 
  tidyr::unnest(.pred)
fold_1_df

## # A tibble: 11,100 x 5
##    trees .pred_No .pred_Yes Attrition  .row
##    <int>    <dbl>     <dbl> <fct>     <int>
##  1     1    0.691     0.309 Yes           1
##  2     2    1         0     Yes           1
##  3     3    1         0     Yes           1
##  4     4    1         0     Yes           1
##  5     5    1         0     Yes           1
##  6     6    0.862     0.138 Yes           1
##  7     7    0.882     0.118 Yes           1
##  8     8    0.770     0.230 Yes           1
##  9     9    0.689     0.311 Yes           1
## 10    10    0.724     0.276 Yes           1
## # … with 11,090 more rows
…
