Evaluating submodels with the same model object • parsnip
…
For multi_predict(), the same semantics of predict() are used but, for this model, there is an extra argument called trees. Candidate submodel values can be passed in with trees:

fold_1_pred <- 
  multi_predict(
    fold_1_model, 
    new_data = pred_data %>% dplyr::select(-Attrition),
    trees = 1:100,
    type = "prob"
  )
fold_1_pred

## # A tibble: 111 × 1
##    .pred             
##    <list>            
##  1 <tibble [100 × 3]>
##  2 <tibble [100 × 3]>
##  3 <tibble [100 × 3]>
##  4 <tibble [100 × 3]>
##  5 <tibble [100 × 3]>
##  6 <tibble [100 × 3]>
##  7 <tibble [100 × 3]>
##  8 <tibble [100 × 3]>
##  9 <tibble [100 × 3]>
## 10 <tibble [100 × 3]>
## # … with 101 more rows

The results is a tibble that has as many rows as the data being predicted (n = 111). The .pred column contains a list of tibbles and each has the predictions across the different number of trees:

fold_1_pred$.pred[[1]]

## # A tibble: 100 × 3
##    trees .pred_No .pred_Yes
##    <int>    <dbl>     <dbl>
##  1     1    0.916    0.0840
##  2     2    0.558    0.442 
##  3     3    0.706    0.294 
##  4     4    0.542    0.458 
##  5     5    0.630    0.370 
##  6     6    0.693    0.307 
##  7     7    0.741    0.259 
##  8     8    0.662    0.338 
##  9     9    0.596    0.404 
## 10    10    0.638    0.362 
## # … with 90 more rows

To get this into a format that is more usable, we can use tidyr::unnest() but we first add row numbers so that we can track the predictions by test sample as well as the actual classes:

fold_1_df <- 
  fold_1_pred %>% 
  bind_cols(pred_data %>% dplyr::select(Attrition)) %>% 
  add_rowindex() %>% 
  tidyr::unnest(.pred)
fold_1_df

## # A tibble: 11,100 × 5
##    trees .pred_No .pred_Yes Attrition  .row
##    <int>    <dbl>     <dbl> <fct>     <int>
##  1     1    0.916    0.0840 No            1
##  2     2    0.558    0.442  No            1
##  3     3    0.706    0.294  No            1
##  4     4    0.542    0.458  No            1
##  5     5    0.630    0.370  No            1
##  6     6    0.693    0.307  No            1
##  7     7    0.741    0.259  No            1
##  8     8    0.662    0.338  No            1
##  9     9    0.596    0.404  No            1
## 10    10    0.638    0.362  No            1
## # … with 11,090 more rows
…
