…
The [`fit()`](https://generics.r-lib.org/reference/fit.html) and
[`fit_xy()`](https://generics.r-lib.org/reference/fit_xy.html) arguments
have arguments called `case_weights` that expect vectors of case
weights.

### Prediction types

    parsnip:::get_from_env("decision_tree_predict") |>
      dplyr::filter(engine == "rpart") |>
      dplyr::select(mode, type)

    ## # A tibble: 7 x 2
    ##   mode                type
    ##   <chr>               <chr>
    ## 1 regression          numeric
    ## 2 regression          raw
    ## 3 classification      class
    ## 4 classification      prob
    ## 5 classification      raw
    ## 6 censored regression time
    ## # i 1 more row
…
