Technical aspects of the glmnet model — glmnet-details • parsnip
…
Note that there is a tidy() method for glmnet objects in the broom
package. If this is used directly on the underlying glmnet object, it
returns all of coefficients on the path:

# Use the basic tidy() method for glmnet
all_tidy_coefs <- broom:::tidy.glmnet(fit$fit)
all_tidy_coefs

## # A tibble: 640 x 5
##    term         step estimate lambda dev.ratio
##    <chr>       <dbl>    <dbl>  <dbl>     <dbl>
##  1 (Intercept)     1     20.1   5.15     0    
##  2 (Intercept)     2     21.6   4.69     0.129
##  3 (Intercept)     3     23.2   4.27     0.248
##  4 (Intercept)     4     24.7   3.89     0.347
##  5 (Intercept)     5     26.0   3.55     0.429
##  6 (Intercept)     6     27.2   3.23     0.497
##  7 (Intercept)     7     28.4   2.95     0.554
##  8 (Intercept)     8     29.4   2.68     0.601
##  9 (Intercept)     9     30.3   2.45     0.640
## 10 (Intercept)    10     31.1   2.23     0.673
## # … with 630 more rows
…
