Linear quantile regression via the quantreg package — details_linear_reg_quantreg • parsnip
…
qr_pred <- predict(qr_fit, Chicago_test)
qr_pred

## # A tibble: 7 x 1
##   .pred_quantile
##        <qtls(3)>
## 1         [21.1]
## 2         [21.4]
## 3         [21.7]
## 4         [21.4]
## 5         [19.5]
## 6         [6.88]
## # i 1 more row

We can unnest these values and/or convert them to a rectangular format:

as_tibble(qr_pred$.pred_quantile)

## # A tibble: 21 x 3
##   .pred_quantile .quantile_levels  .row
##            <dbl>            <dbl> <int>
## 1           20.6             0.25     1
## 2           21.1             0.5      1
## 3           21.5             0.75     1
## 4           20.9             0.25     2
## 5           21.4             0.5      2
## 6           21.8             0.75     2
## # i 15 more rows
…
